%YAML 1.1
%TAG !u! tag:unity3d.com,2011:
--- !u!1045 &1
EditorBuildSettings:
  m_ObjectHideFlags: 0
  serializedVersion: 2
  m_Scenes:
  - enabled: 0
    path: Assets/Addons/Evereal/VideoCapture/Demo/Demo_01_VideoCapture.unity
    guid: da25027fb7314424a8c8adfd28b1539a
  - enabled: 0
    path: Assets/Scenes/Main.unity
    guid: 9fc0d4010bbf28b4594072e72b8655ab
  - enabled: 0
    path: Assets/Scenes/Test.unity
    guid: 72185c316fbb40f4aa4e7dc5ec05d907
  - enabled: 1
    path: Assets/Scenes/Main LandScape.unity
    guid: 4edbf7fb1206c9e4b8053532fb89a2d8
  - enabled: 0
    path: Assets/Scenes/Calibrate2.unity
    guid: 7656a7fbb8b80ee4fadab67ee82e65f9
  - enabled: 0
    path: Assets/Scenes/Audio.unity
    guid: 8ce55635abfd2094da37d9669ec9e50d
  m_configObjects: {}
